<?xml version="1.0" encoding="UTF-8"?>
<svg width="14px" height="14px" viewBox="0 0 14 14" version="1.1" xmlns="http://www.w3.org/2000/svg" xmlns:xlink="http://www.w3.org/1999/xlink">
    <!-- Generator: Sketch 63.1 (92452) - https://sketch.com -->
    <title>icon/14/light/arrow--breadcrumb</title>
    <desc>Created with Sketch.</desc>
    <g id="icon/14/light/arrow--breadcrumb" stroke="none" stroke-width="1" fill="none" fill-rule="evenodd">
        <rect id="BG" fill-rule="nonzero" x="0" y="0" width="14" height="14"></rect>
        <g id="element/icon/14/light/arrow--breadcrumb" transform="translate(2.000000, 2.000000)" stroke="#AAAAAA" stroke-linecap="round">
            <polyline id="Path-2" stroke-linejoin="round" points="5 1 9 4.99691574 5 9"></polyline>
            <line x1="8" y1="5" x2="1" y2="5" id="Line"></line>
        </g>
    </g>
</svg>