<?xml version="1.0" encoding="utf-8"?>
<!-- Generator: Adobe Illustrator 24.0.1, SVG Export Plug-In . SVG Version: 6.00 Build 0)  -->
<svg version="1.1" id="圖層_1" xmlns="http://www.w3.org/2000/svg" xmlns:xlink="http://www.w3.org/1999/xlink" x="0px" y="0px"
	 viewBox="0 0 12 20" style="enable-background:new 0 0 12 20;" xml:space="preserve">
<style type="text/css">
	.st0{fill:#FF6600;}
</style>
<title>icon-btn-arrow-right--primary</title>
<desc>Created with Sketch.</desc>
<g id="Symbols">
	<g id="btn_x2F_light_x2F_M_x2F_outlined_x2F_outlined_x2B_icon" transform="translate(-109.000000, -12.000000)">
		<g id="Padding-Group-2">
			<g id="Stacked-Group" transform="translate(32.000000, 10.000000)">
				<g id="icon-btn-arrow-right--primary" transform="translate(76.000000, 2.000000)">
					<path class="st0" d="M2,19.5c-0.1,0-0.3-0.1-0.4-0.2c-0.2-0.2-0.2-0.5,0-0.7l9.6-8.6L1.7,1.4c-0.2-0.2-0.2-0.5,0-0.7
						s0.5-0.2,0.7,0l10,9c0.1,0.1,0.2,0.2,0.2,0.4c0,0.1-0.1,0.3-0.2,0.4l-10,9C2.2,19.5,2.1,19.5,2,19.5z"/>
				</g>
			</g>
		</g>
	</g>
</g>
</svg>
